{
    "source": "src",
    "destination": "build",
    "plugins": {
        "metalsmith-markdown": true,
        "metalsmith-env": {
          "variables": {
            "DOMAIN": "http://metalsmith.directus.p1.benevolent.tech"
          }
        },
        "metalsmith-filepath": {
          "absolute": false,
          "permalinks": false
        },
        "metalsmith-directus": {
          "accessToken": "jiiKLyytlyNX6zS38aPaIgWIY3W5wcYF",
          "baseURL": "http://api.directus.p1.benevolent.tech/api"
        },
        "metalsmith-templates": {
          "engine": "handlebars",
          "directory": "templates"
        },
        "metalsmith-layouts": {
            "engine": "handlebars"
        }
    }
}
